{
    "BeaconsList": [
                    {
                    "UUID": "B9407F30-F5F8-466E-AFF9-25556B57FE6D",
                    "Major": "42148",
                    "Minor": "26797",
                    "Color": "Blueberry Pie",
                    "IPAddress": "192.168.0.187",
                    "Username": "webaccess",
                    "Password": "webaccess"
                    },
                    {
                    "UUID": "B9407F30-F5F8-466E-AFF9-25556B57FE6D",
                    "Major": "5432",
                    "Minor": "3210",
                    "Color": "Blueberry Pie",
                    "IPAddress": "192.168.0.187",
                    "Username": "webaccess",
                    "Password": "webaccess"
                    },
                    {
                    "UUID": "B9407F30-F5F8-466E-AFF9-25556B57FE6D",
                    "Major": "46818",
                    "Minor": "12271",
                    "Color": "Icy Marshmallow",
                    "IPAddress": "192.168.0.187",
                    "Username": "webaccess",
                    "Password": "webaccess"
                    },
                    {
                    "UUID": "B9407F30-F5F8-466E-AFF9-25556B57FE6D",
                    "Major": "55555",
                    "Minor": "33333",
                    "Color": "Icy Marshmallow",
                    "IPAddress": "192.168.0.187",
                    "Username": "webaccess",
                    "Password": "webaccess"
                    },
                    {
                    "UUID": "B9407F30-F5F8-466E-AFF9-25556B57FE6D",
                    "Major": "51795",
                    "Minor": "30468",
                    "Color": "Mint Cocktail",
                    "IPAddress": "192.168.0.187",
                    "Username": "webaccess",
                    "Password": "webaccess"
                    },
                    {
                    "UUID": "B9407F30-F5F8-466E-AFF9-25556B57FE6D",
                    "Major": "48365",
                    "Minor": "16515",
                    "Color": "Mint Cocktail",
                    "IPAddress": "192.168.0.187",
                    "Username": "webaccess",
                    "Password": "webaccess"
                    },
                ]
}