{
  "images" : [
    {
      "idiom" : "universal",
      "scale" : "1x",
      "filename" : "close-57x57.png"
    },
    {
      "idiom" : "universal",
      "scale" : "2x",
      "filename" : "close-72x72.png"
    },
    {
      "idiom" : "universal",
      "scale" : "3x",
      "filename" : "close-76x76.png"
    }
  ],
  "info" : {
    "version" : 1,
    "author" : "xcode"
  }
}